(kicad_sch
	(version 20231120)
	(generator "eeschema")
	(generator_version "8.0")
	(uuid "2fae58be-b645-45b3-b2b5-5e98e31fb51e")
	(paper "USLetter")
	(title_block
		(title "OpenTNC-Pico")
		(date "2025-01-17")
		(rev "0.9 prototype")
		(comment 1 "by David Platt AE6EO")
		(comment 2 "Schematic license: Creative Commons CC BY-SA")
	)
	(lib_symbols
		(symbol "Connector_Generic:Conn_01x03"
			(pin_names
				(offset 1.016) hide)
			(exclude_from_sim no)
			(in_bom yes)
			(on_board yes)
			(property "Reference" "J"
				(at 0 5.08 0)
				(effects
					(font
						(size 1.27 1.27)
					)
				)
			)
			(property "Value" "Conn_01x03"
				(at 0 -5.08 0)
				(effects
					(font
						(size 1.27 1.27)
					)
				)
			)
			(property "Footprint" ""
				(at 0 0 0)
				(effects
					(font
						(size 1.27 1.27)
					)
					(hide yes)
				)
			)
			(property "Datasheet" "~"
				(at 0 0 0)
				(effects
					(font
						(size 1.27 1.27)
					)
					(hide yes)
				)
			)
			(property "Description" "Generic connector, single row, 01x03, script generated (kicad-library-utils/schlib/autogen/connector/)"
				(at 0 0 0)
				(effects
					(font
						(size 1.27 1.27)
					)
					(hide yes)
				)
			)
			(property "ki_keywords" "connector"
				(at 0 0 0)
				(effects
					(font
						(size 1.27 1.27)
					)
					(hide yes)
				)
			)
			(property "ki_fp_filters" "Connector*:*_1x??_*"
				(at 0 0 0)
				(effects
					(font
						(size 1.27 1.27)
					)
					(hide yes)
				)
			)
			(symbol "Conn_01x03_1_1"
				(rectangle
					(start -1.27 -2.413)
					(end 0 -2.667)
					(stroke
						(width 0.1524)
						(type default)
					)
					(fill
						(type none)
					)
				)
				(rectangle
					(start -1.27 0.127)
					(end 0 -0.127)
					(stroke
						(width 0.1524)
						(type default)
					)
					(fill
						(type none)
					)
				)
				(rectangle
					(start -1.27 2.667)
					(end 0 2.413)
					(stroke
						(width 0.1524)
						(type default)
					)
					(fill
						(type none)
					)
				)
				(rectangle
					(start -1.27 3.81)
					(end 1.27 -3.81)
					(stroke
						(width 0.254)
						(type default)
					)
					(fill
						(type background)
					)
				)
				(pin passive line
					(at -5.08 2.54 0)
					(length 3.81)
					(name "Pin_1"
						(effects
							(font
								(size 1.27 1.27)
							)
						)
					)
					(number "1"
						(effects
							(font
								(size 1.27 1.27)
							)
						)
					)
				)
				(pin passive line
					(at -5.08 0 0)
					(length 3.81)
					(name "Pin_2"
						(effects
							(font
								(size 1.27 1.27)
							)
						)
					)
					(number "2"
						(effects
							(font
								(size 1.27 1.27)
							)
						)
					)
				)
				(pin passive line
					(at -5.08 -2.54 0)
					(length 3.81)
					(name "Pin_3"
						(effects
							(font
								(size 1.27 1.27)
							)
						)
					)
					(number "3"
						(effects
							(font
								(size 1.27 1.27)
							)
						)
					)
				)
			)
		)
		(symbol "Device:C_Polarized_Small"
			(pin_numbers hide)
			(pin_names
				(offset 0.254) hide)
			(exclude_from_sim no)
			(in_bom yes)
			(on_board yes)
			(property "Reference" "C"
				(at 0.254 1.778 0)
				(effects
					(font
						(size 1.27 1.27)
					)
					(justify left)
				)
			)
			(property "Value" "C_Polarized_Small"
				(at 0.254 -2.032 0)
				(effects
					(font
						(size 1.27 1.27)
					)
					(justify left)
				)
			)
			(property "Footprint" ""
				(at 0 0 0)
				(effects
					(font
						(size 1.27 1.27)
					)
					(hide yes)
				)
			)
			(property "Datasheet" "~"
				(at 0 0 0)
				(effects
					(font
						(size 1.27 1.27)
					)
					(hide yes)
				)
			)
			(property "Description" "Polarized capacitor, small symbol"
				(at 0 0 0)
				(effects
					(font
						(size 1.27 1.27)
					)
					(hide yes)
				)
			)
			(property "ki_keywords" "cap capacitor"
				(at 0 0 0)
				(effects
					(font
						(size 1.27 1.27)
					)
					(hide yes)
				)
			)
			(property "ki_fp_filters" "CP_*"
				(at 0 0 0)
				(effects
					(font
						(size 1.27 1.27)
					)
					(hide yes)
				)
			)
			(symbol "C_Polarized_Small_0_1"
				(rectangle
					(start -1.524 -0.3048)
					(end 1.524 -0.6858)
					(stroke
						(width 0)
						(type default)
					)
					(fill
						(type outline)
					)
				)
				(rectangle
					(start -1.524 0.6858)
					(end 1.524 0.3048)
					(stroke
						(width 0)
						(type default)
					)
					(fill
						(type none)
					)
				)
				(polyline
					(pts
						(xy -1.27 1.524) (xy -0.762 1.524)
					)
					(stroke
						(width 0)
						(type default)
					)
					(fill
						(type none)
					)
				)
				(polyline
					(pts
						(xy -1.016 1.27) (xy -1.016 1.778)
					)
					(stroke
						(width 0)
						(type default)
					)
					(fill
						(type none)
					)
				)
			)
			(symbol "C_Polarized_Small_1_1"
				(pin passive line
					(at 0 2.54 270)
					(length 1.8542)
					(name "~"
						(effects
							(font
								(size 1.27 1.27)
							)
						)
					)
					(number "1"
						(effects
							(font
								(size 1.27 1.27)
							)
						)
					)
				)
				(pin passive line
					(at 0 -2.54 90)
					(length 1.8542)
					(name "~"
						(effects
							(font
								(size 1.27 1.27)
							)
						)
					)
					(number "2"
						(effects
							(font
								(size 1.27 1.27)
							)
						)
					)
				)
			)
		)
		(symbol "Jumper:SolderJumper_2_Bridged"
			(pin_numbers hide)
			(pin_names
				(offset 0) hide)
			(exclude_from_sim yes)
			(in_bom no)
			(on_board yes)
			(property "Reference" "JP"
				(at 0 2.032 0)
				(effects
					(font
						(size 1.27 1.27)
					)
				)
			)
			(property "Value" "SolderJumper_2_Bridged"
				(at 0 -2.54 0)
				(effects
					(font
						(size 1.27 1.27)
					)
				)
			)
			(property "Footprint" ""
				(at 0 0 0)
				(effects
					(font
						(size 1.27 1.27)
					)
					(hide yes)
				)
			)
			(property "Datasheet" "~"
				(at 0 0 0)
				(effects
					(font
						(size 1.27 1.27)
					)
					(hide yes)
				)
			)
			(property "Description" "Solder Jumper, 2-pole, closed/bridged"
				(at 0 0 0)
				(effects
					(font
						(size 1.27 1.27)
					)
					(hide yes)
				)
			)
			(property "ki_keywords" "solder jumper SPST"
				(at 0 0 0)
				(effects
					(font
						(size 1.27 1.27)
					)
					(hide yes)
				)
			)
			(property "ki_fp_filters" "SolderJumper*Bridged*"
				(at 0 0 0)
				(effects
					(font
						(size 1.27 1.27)
					)
					(hide yes)
				)
			)
			(symbol "SolderJumper_2_Bridged_0_1"
				(rectangle
					(start -0.508 0.508)
					(end 0.508 -0.508)
					(stroke
						(width 0)
						(type default)
					)
					(fill
						(type outline)
					)
				)
				(arc
					(start -0.254 1.016)
					(mid -1.2656 0)
					(end -0.254 -1.016)
					(stroke
						(width 0)
						(type default)
					)
					(fill
						(type none)
					)
				)
				(arc
					(start -0.254 1.016)
					(mid -1.2656 0)
					(end -0.254 -1.016)
					(stroke
						(width 0)
						(type default)
					)
					(fill
						(type outline)
					)
				)
				(polyline
					(pts
						(xy -0.254 1.016) (xy -0.254 -1.016)
					)
					(stroke
						(width 0)
						(type default)
					)
					(fill
						(type none)
					)
				)
				(polyline
					(pts
						(xy 0.254 1.016) (xy 0.254 -1.016)
					)
					(stroke
						(width 0)
						(type default)
					)
					(fill
						(type none)
					)
				)
				(arc
					(start 0.254 -1.016)
					(mid 1.2656 0)
					(end 0.254 1.016)
					(stroke
						(width 0)
						(type default)
					)
					(fill
						(type none)
					)
				)
				(arc
					(start 0.254 -1.016)
					(mid 1.2656 0)
					(end 0.254 1.016)
					(stroke
						(width 0)
						(type default)
					)
					(fill
						(type outline)
					)
				)
			)
			(symbol "SolderJumper_2_Bridged_1_1"
				(pin passive line
					(at -3.81 0 0)
					(length 2.54)
					(name "A"
						(effects
							(font
								(size 1.27 1.27)
							)
						)
					)
					(number "1"
						(effects
							(font
								(size 1.27 1.27)
							)
						)
					)
				)
				(pin passive line
					(at 3.81 0 180)
					(length 2.54)
					(name "B"
						(effects
							(font
								(size 1.27 1.27)
							)
						)
					)
					(number "2"
						(effects
							(font
								(size 1.27 1.27)
							)
						)
					)
				)
			)
		)
		(symbol "Mechanical:MountingHole"
			(pin_names
				(offset 1.016)
			)
			(exclude_from_sim yes)
			(in_bom no)
			(on_board yes)
			(property "Reference" "H"
				(at 0 5.08 0)
				(effects
					(font
						(size 1.27 1.27)
					)
				)
			)
			(property "Value" "MountingHole"
				(at 0 3.175 0)
				(effects
					(font
						(size 1.27 1.27)
					)
				)
			)
			(property "Footprint" ""
				(at 0 0 0)
				(effects
					(font
						(size 1.27 1.27)
					)
					(hide yes)
				)
			)
			(property "Datasheet" "~"
				(at 0 0 0)
				(effects
					(font
						(size 1.27 1.27)
					)
					(hide yes)
				)
			)
			(property "Description" "Mounting Hole without connection"
				(at 0 0 0)
				(effects
					(font
						(size 1.27 1.27)
					)
					(hide yes)
				)
			)
			(property "ki_keywords" "mounting hole"
				(at 0 0 0)
				(effects
					(font
						(size 1.27 1.27)
					)
					(hide yes)
				)
			)
			(property "ki_fp_filters" "MountingHole*"
				(at 0 0 0)
				(effects
					(font
						(size 1.27 1.27)
					)
					(hide yes)
				)
			)
			(symbol "MountingHole_0_1"
				(circle
					(center 0 0)
					(radius 1.27)
					(stroke
						(width 1.27)
						(type default)
					)
					(fill
						(type none)
					)
				)
			)
		)
		(symbol "Pico:Pico"
			(pin_names
				(offset 1.016)
			)
			(exclude_from_sim no)
			(in_bom yes)
			(on_board yes)
			(property "Reference" "U3"
				(at 0 31.75 0)
				(effects
					(font
						(size 1.27 1.27)
					)
				)
			)
			(property "Value" "Pico"
				(at 0 29.21 0)
				(effects
					(font
						(size 1.27 1.27)
					)
				)
			)
			(property "Footprint" "RPi_Pico:RPi_Pico_SMD_TH"
				(at 0 0 90)
				(effects
					(font
						(size 1.27 1.27)
					)
					(hide yes)
				)
			)
			(property "Datasheet" ""
				(at 0 0 0)
				(effects
					(font
						(size 1.27 1.27)
					)
					(hide yes)
				)
			)
			(property "Description" ""
				(at 0 0 0)
				(effects
					(font
						(size 1.27 1.27)
					)
					(hide yes)
				)
			)
			(symbol "Pico_0_0"
				(text "Raspberry Pi"
					(at 0 21.59 0)
					(effects
						(font
							(size 1.27 1.27)
						)
					)
				)
			)
			(symbol "Pico_0_1"
				(rectangle
					(start -15.24 26.67)
					(end 15.24 -26.67)
					(stroke
						(width 0)
						(type solid)
					)
					(fill
						(type background)
					)
				)
			)
			(symbol "Pico_1_1"
				(pin bidirectional line
					(at -17.78 24.13 0)
					(length 2.54)
					(name "GPIO0"
						(effects
							(font
								(size 1.27 1.27)
							)
						)
					)
					(number "1"
						(effects
							(font
								(size 1.27 1.27)
							)
						)
					)
				)
				(pin bidirectional line
					(at -17.78 1.27 0)
					(length 2.54)
					(name "GPIO7"
						(effects
							(font
								(size 1.27 1.27)
							)
						)
					)
					(number "10"
						(effects
							(font
								(size 1.27 1.27)
							)
						)
					)
				)
				(pin bidirectional line
					(at -17.78 -1.27 0)
					(length 2.54)
					(name "GPIO8"
						(effects
							(font
								(size 1.27 1.27)
							)
						)
					)
					(number "11"
						(effects
							(font
								(size 1.27 1.27)
							)
						)
					)
				)
				(pin bidirectional line
					(at -17.78 -3.81 0)
					(length 2.54)
					(name "GPIO9"
						(effects
							(font
								(size 1.27 1.27)
							)
						)
					)
					(number "12"
						(effects
							(font
								(size 1.27 1.27)
							)
						)
					)
				)
				(pin power_in line
					(at -17.78 -6.35 0)
					(length 2.54)
					(name "GND"
						(effects
							(font
								(size 1.27 1.27)
							)
						)
					)
					(number "13"
						(effects
							(font
								(size 1.27 1.27)
							)
						)
					)
				)
				(pin bidirectional line
					(at -17.78 -8.89 0)
					(length 2.54)
					(name "GPIO10"
						(effects
							(font
								(size 1.27 1.27)
							)
						)
					)
					(number "14"
						(effects
							(font
								(size 1.27 1.27)
							)
						)
					)
				)
				(pin bidirectional line
					(at -17.78 -11.43 0)
					(length 2.54)
					(name "GPIO11"
						(effects
							(font
								(size 1.27 1.27)
							)
						)
					)
					(number "15"
						(effects
							(font
								(size 1.27 1.27)
							)
						)
					)
				)
				(pin bidirectional line
					(at -17.78 -13.97 0)
					(length 2.54)
					(name "GPIO12"
						(effects
							(font
								(size 1.27 1.27)
							)
						)
					)
					(number "16"
						(effects
							(font
								(size 1.27 1.27)
							)
						)
					)
				)
				(pin bidirectional line
					(at -17.78 -16.51 0)
					(length 2.54)
					(name "GPIO13"
						(effects
							(font
								(size 1.27 1.27)
							)
						)
					)
					(number "17"
						(effects
							(font
								(size 1.27 1.27)
							)
						)
					)
				)
				(pin power_in line
					(at -17.78 -19.05 0)
					(length 2.54)
					(name "GND"
						(effects
							(font
								(size 1.27 1.27)
							)
						)
					)
					(number "18"
						(effects
							(font
								(size 1.27 1.27)
							)
						)
					)
				)
				(pin bidirectional line
					(at -17.78 -21.59 0)
					(length 2.54)
					(name "GPIO14"
						(effects
							(font
								(size 1.27 1.27)
							)
						)
					)
					(number "19"
						(effects
							(font
								(size 1.27 1.27)
							)
						)
					)
				)
				(pin bidirectional line
					(at -17.78 21.59 0)
					(length 2.54)
					(name "GPIO1"
						(effects
							(font
								(size 1.27 1.27)
							)
						)
					)
					(number "2"
						(effects
							(font
								(size 1.27 1.27)
							)
						)
					)
				)
				(pin bidirectional line
					(at -17.78 -24.13 0)
					(length 2.54)
					(name "GPIO15"
						(effects
							(font
								(size 1.27 1.27)
							)
						)
					)
					(number "20"
						(effects
							(font
								(size 1.27 1.27)
							)
						)
					)
				)
				(pin bidirectional line
					(at 17.78 -24.13 180)
					(length 2.54)
					(name "GPIO16"
						(effects
							(font
								(size 1.27 1.27)
							)
						)
					)
					(number "21"
						(effects
							(font
								(size 1.27 1.27)
							)
						)
					)
				)
				(pin bidirectional line
					(at 17.78 -21.59 180)
					(length 2.54)
					(name "GPIO17"
						(effects
							(font
								(size 1.27 1.27)
							)
						)
					)
					(number "22"
						(effects
							(font
								(size 1.27 1.27)
							)
						)
					)
				)
				(pin power_in line
					(at 17.78 -19.05 180)
					(length 2.54)
					(name "GND"
						(effects
							(font
								(size 1.27 1.27)
							)
						)
					)
					(number "23"
						(effects
							(font
								(size 1.27 1.27)
							)
						)
					)
				)
				(pin bidirectional line
					(at 17.78 -16.51 180)
					(length 2.54)
					(name "GPIO18"
						(effects
							(font
								(size 1.27 1.27)
							)
						)
					)
					(number "24"
						(effects
							(font
								(size 1.27 1.27)
							)
						)
					)
				)
				(pin bidirectional line
					(at 17.78 -13.97 180)
					(length 2.54)
					(name "GPIO19"
						(effects
							(font
								(size 1.27 1.27)
							)
						)
					)
					(number "25"
						(effects
							(font
								(size 1.27 1.27)
							)
						)
					)
				)
				(pin bidirectional line
					(at 17.78 -11.43 180)
					(length 2.54)
					(name "GPIO20"
						(effects
							(font
								(size 1.27 1.27)
							)
						)
					)
					(number "26"
						(effects
							(font
								(size 1.27 1.27)
							)
						)
					)
				)
				(pin bidirectional line
					(at 17.78 -8.89 180)
					(length 2.54)
					(name "GPIO21"
						(effects
							(font
								(size 1.27 1.27)
							)
						)
					)
					(number "27"
						(effects
							(font
								(size 1.27 1.27)
							)
						)
					)
				)
				(pin power_in line
					(at 17.78 -6.35 180)
					(length 2.54)
					(name "GND"
						(effects
							(font
								(size 1.27 1.27)
							)
						)
					)
					(number "28"
						(effects
							(font
								(size 1.27 1.27)
							)
						)
					)
				)
				(pin bidirectional line
					(at 17.78 -3.81 180)
					(length 2.54)
					(name "GPIO22"
						(effects
							(font
								(size 1.27 1.27)
							)
						)
					)
					(number "29"
						(effects
							(font
								(size 1.27 1.27)
							)
						)
					)
				)
				(pin power_in line
					(at -17.78 19.05 0)
					(length 2.54)
					(name "GND"
						(effects
							(font
								(size 1.27 1.27)
							)
						)
					)
					(number "3"
						(effects
							(font
								(size 1.27 1.27)
							)
						)
					)
				)
				(pin input line
					(at 17.78 -1.27 180)
					(length 2.54)
					(name "RUN"
						(effects
							(font
								(size 1.27 1.27)
							)
						)
					)
					(number "30"
						(effects
							(font
								(size 1.27 1.27)
							)
						)
					)
				)
				(pin bidirectional line
					(at 17.78 1.27 180)
					(length 2.54)
					(name "GPIO26_ADC0"
						(effects
							(font
								(size 1.27 1.27)
							)
						)
					)
					(number "31"
						(effects
							(font
								(size 1.27 1.27)
							)
						)
					)
				)
				(pin bidirectional line
					(at 17.78 3.81 180)
					(length 2.54)
					(name "GPIO27_ADC1"
						(effects
							(font
								(size 1.27 1.27)
							)
						)
					)
					(number "32"
						(effects
							(font
								(size 1.27 1.27)
							)
						)
					)
				)
				(pin power_in line
					(at 17.78 6.35 180)
					(length 2.54)
					(name "AGND"
						(effects
							(font
								(size 1.27 1.27)
							)
						)
					)
					(number "33"
						(effects
							(font
								(size 1.27 1.27)
							)
						)
					)
				)
				(pin bidirectional line
					(at 17.78 8.89 180)
					(length 2.54)
					(name "GPIO28_ADC2"
						(effects
							(font
								(size 1.27 1.27)
							)
						)
					)
					(number "34"
						(effects
							(font
								(size 1.27 1.27)
							)
						)
					)
				)
				(pin bidirectional line
					(at 17.78 11.43 180)
					(length 2.54)
					(name "ADC_VREF"
						(effects
							(font
								(size 1.27 1.27)
							)
						)
					)
					(number "35"
						(effects
							(font
								(size 1.27 1.27)
							)
						)
					)
				)
				(pin power_out line
					(at 17.78 13.97 180)
					(length 2.54)
					(name "3V3"
						(effects
							(font
								(size 1.27 1.27)
							)
						)
					)
					(number "36"
						(effects
							(font
								(size 1.27 1.27)
							)
						)
					)
				)
				(pin input line
					(at 17.78 16.51 180)
					(length 2.54)
					(name "3V3_EN"
						(effects
							(font
								(size 1.27 1.27)
							)
						)
					)
					(number "37"
						(effects
							(font
								(size 1.27 1.27)
							)
						)
					)
				)
				(pin power_in line
					(at 17.78 19.05 180)
					(length 2.54)
					(name "GND"
						(effects
							(font
								(size 1.27 1.27)
							)
						)
					)
					(number "38"
						(effects
							(font
								(size 1.27 1.27)
							)
						)
					)
				)
				(pin power_out line
					(at 17.78 21.59 180)
					(length 2.54)
					(name "VSYS"
						(effects
							(font
								(size 1.27 1.27)
							)
						)
					)
					(number "39"
						(effects
							(font
								(size 1.27 1.27)
							)
						)
					)
				)
				(pin bidirectional line
					(at -17.78 16.51 0)
					(length 2.54)
					(name "GPIO2"
						(effects
							(font
								(size 1.27 1.27)
							)
						)
					)
					(number "4"
						(effects
							(font
								(size 1.27 1.27)
							)
						)
					)
				)
				(pin power_out line
					(at 17.78 24.13 180)
					(length 2.54)
					(name "VBUS"
						(effects
							(font
								(size 1.27 1.27)
							)
						)
					)
					(number "40"
						(effects
							(font
								(size 1.27 1.27)
							)
						)
					)
				)
				(pin input line
					(at -2.54 -29.21 90)
					(length 2.54)
					(name "SWCLK"
						(effects
							(font
								(size 1.27 1.27)
							)
						)
					)
					(number "41"
						(effects
							(font
								(size 1.27 1.27)
							)
						)
					)
				)
				(pin power_in line
					(at 0 -29.21 90)
					(length 2.54)
					(name "GND"
						(effects
							(font
								(size 1.27 1.27)
							)
						)
					)
					(number "42"
						(effects
							(font
								(size 1.27 1.27)
							)
						)
					)
				)
				(pin bidirectional line
					(at 2.54 -29.21 90)
					(length 2.54)
					(name "SWDIO"
						(effects
							(font
								(size 1.27 1.27)
							)
						)
					)
					(number "43"
						(effects
							(font
								(size 1.27 1.27)
							)
						)
					)
				)
				(pin bidirectional line
					(at -17.78 13.97 0)
					(length 2.54)
					(name "GPIO3"
						(effects
							(font
								(size 1.27 1.27)
							)
						)
					)
					(number "5"
						(effects
							(font
								(size 1.27 1.27)
							)
						)
					)
				)
				(pin bidirectional line
					(at -17.78 11.43 0)
					(length 2.54)
					(name "GPIO4"
						(effects
							(font
								(size 1.27 1.27)
							)
						)
					)
					(number "6"
						(effects
							(font
								(size 1.27 1.27)
							)
						)
					)
				)
				(pin bidirectional line
					(at -17.78 8.89 0)
					(length 2.54)
					(name "GPIO5"
						(effects
							(font
								(size 1.27 1.27)
							)
						)
					)
					(number "7"
						(effects
							(font
								(size 1.27 1.27)
							)
						)
					)
				)
				(pin power_in line
					(at -17.78 6.35 0)
					(length 2.54)
					(name "GND"
						(effects
							(font
								(size 1.27 1.27)
							)
						)
					)
					(number "8"
						(effects
							(font
								(size 1.27 1.27)
							)
						)
					)
				)
				(pin bidirectional line
					(at -17.78 3.81 0)
					(length 2.54)
					(name "GPIO6"
						(effects
							(font
								(size 1.27 1.27)
							)
						)
					)
					(number "9"
						(effects
							(font
								(size 1.27 1.27)
							)
						)
					)
				)
			)
		)
		(symbol "Regulator_Linear:LP2950-3.3_TO92"
			(pin_names
				(offset 0.254)
			)
			(exclude_from_sim no)
			(in_bom yes)
			(on_board yes)
			(property "Reference" "U"
				(at -3.81 3.175 0)
				(effects
					(font
						(size 1.27 1.27)
					)
				)
			)
			(property "Value" "LP2950-3.3_TO92"
				(at 0 3.175 0)
				(effects
					(font
						(size 1.27 1.27)
					)
					(justify left)
				)
			)
			(property "Footprint" "Package_TO_SOT_THT:TO-92_Inline"
				(at 0 5.715 0)
				(effects
					(font
						(size 1.27 1.27)
						(italic yes)
					)
					(hide yes)
				)
			)
			(property "Datasheet" "http://www.ti.com/lit/ds/symlink/lp2950.pdf"
				(at 0 -1.27 0)
				(effects
					(font
						(size 1.27 1.27)
					)
					(hide yes)
				)
			)
			(property "Description" "Positive 100mA 30V Linear Micropower Voltage Regulator, Fixed Output 3.3V, TO-92"
				(at 0 0 0)
				(effects
					(font
						(size 1.27 1.27)
					)
					(hide yes)
				)
			)
			(property "ki_keywords" "Micropower Voltage Regulator 100mA Positive"
				(at 0 0 0)
				(effects
					(font
						(size 1.27 1.27)
					)
					(hide yes)
				)
			)
			(property "ki_fp_filters" "TO?92*"
				(at 0 0 0)
				(effects
					(font
						(size 1.27 1.27)
					)
					(hide yes)
				)
			)
			(symbol "LP2950-3.3_TO92_0_1"
				(rectangle
					(start -5.08 -5.08)
					(end 5.08 1.905)
					(stroke
						(width 0.254)
						(type default)
					)
					(fill
						(type background)
					)
				)
			)
			(symbol "LP2950-3.3_TO92_1_1"
				(pin power_out line
					(at 7.62 0 180)
					(length 2.54)
					(name "VO"
						(effects
							(font
								(size 1.27 1.27)
							)
						)
					)
					(number "1"
						(effects
							(font
								(size 1.27 1.27)
							)
						)
					)
				)
				(pin power_in line
					(at 0 -7.62 90)
					(length 2.54)
					(name "GND"
						(effects
							(font
								(size 1.27 1.27)
							)
						)
					)
					(number "2"
						(effects
							(font
								(size 1.27 1.27)
							)
						)
					)
				)
				(pin power_in line
					(at -7.62 0 0)
					(length 2.54)
					(name "VI"
						(effects
							(font
								(size 1.27 1.27)
							)
						)
					)
					(number "3"
						(effects
							(font
								(size 1.27 1.27)
							)
						)
					)
				)
			)
		)
		(symbol "power:GND"
			(power)
			(pin_numbers hide)
			(pin_names
				(offset 0) hide)
			(exclude_from_sim no)
			(in_bom yes)
			(on_board yes)
			(property "Reference" "#PWR"
				(at 0 -6.35 0)
				(effects
					(font
						(size 1.27 1.27)
					)
					(hide yes)
				)
			)
			(property "Value" "GND"
				(at 0 -3.81 0)
				(effects
					(font
						(size 1.27 1.27)
					)
				)
			)
			(property "Footprint" ""
				(at 0 0 0)
				(effects
					(font
						(size 1.27 1.27)
					)
					(hide yes)
				)
			)
			(property "Datasheet" ""
				(at 0 0 0)
				(effects
					(font
						(size 1.27 1.27)
					)
					(hide yes)
				)
			)
			(property "Description" "Power symbol creates a global label with name \"GND\" , ground"
				(at 0 0 0)
				(effects
					(font
						(size 1.27 1.27)
					)
					(hide yes)
				)
			)
			(property "ki_keywords" "global power"
				(at 0 0 0)
				(effects
					(font
						(size 1.27 1.27)
					)
					(hide yes)
				)
			)
			(symbol "GND_0_1"
				(polyline
					(pts
						(xy 0 0) (xy 0 -1.27) (xy 1.27 -1.27) (xy 0 -2.54) (xy -1.27 -1.27) (xy 0 -1.27)
					)
					(stroke
						(width 0)
						(type default)
					)
					(fill
						(type none)
					)
				)
			)
			(symbol "GND_1_1"
				(pin power_in line
					(at 0 0 270)
					(length 0)
					(name "~"
						(effects
							(font
								(size 1.27 1.27)
							)
						)
					)
					(number "1"
						(effects
							(font
								(size 1.27 1.27)
							)
						)
					)
				)
			)
		)
		(symbol "power:PWR_FLAG"
			(power)
			(pin_numbers hide)
			(pin_names
				(offset 0) hide)
			(exclude_from_sim no)
			(in_bom yes)
			(on_board yes)
			(property "Reference" "#FLG"
				(at 0 1.905 0)
				(effects
					(font
						(size 1.27 1.27)
					)
					(hide yes)
				)
			)
			(property "Value" "PWR_FLAG"
				(at 0 3.81 0)
				(effects
					(font
						(size 1.27 1.27)
					)
				)
			)
			(property "Footprint" ""
				(at 0 0 0)
				(effects
					(font
						(size 1.27 1.27)
					)
					(hide yes)
				)
			)
			(property "Datasheet" "~"
				(at 0 0 0)
				(effects
					(font
						(size 1.27 1.27)
					)
					(hide yes)
				)
			)
			(property "Description" "Special symbol for telling ERC where power comes from"
				(at 0 0 0)
				(effects
					(font
						(size 1.27 1.27)
					)
					(hide yes)
				)
			)
			(property "ki_keywords" "flag power"
				(at 0 0 0)
				(effects
					(font
						(size 1.27 1.27)
					)
					(hide yes)
				)
			)
			(symbol "PWR_FLAG_0_0"
				(pin power_out line
					(at 0 0 90)
					(length 0)
					(name "~"
						(effects
							(font
								(size 1.27 1.27)
							)
						)
					)
					(number "1"
						(effects
							(font
								(size 1.27 1.27)
							)
						)
					)
				)
			)
			(symbol "PWR_FLAG_0_1"
				(polyline
					(pts
						(xy 0 0) (xy 0 1.27) (xy -1.016 1.905) (xy 0 2.54) (xy 1.016 1.905) (xy 0 1.27)
					)
					(stroke
						(width 0)
						(type default)
					)
					(fill
						(type none)
					)
				)
			)
		)
	)
	(junction
		(at 82.55 139.7)
		(diameter 0)
		(color 0 0 0 0)
		(uuid "9b4d2fb4-64a5-4702-8f33-82a9c17ea2d8")
	)
	(junction
		(at 53.34 139.7)
		(diameter 0)
		(color 0 0 0 0)
		(uuid "b7e2f926-4cc7-4a9d-ba26-59b20f405e25")
	)
	(no_connect
		(at 162.56 96.52)
		(uuid "239cd49b-5264-41bf-b691-2cd27d2c71d1")
	)
	(no_connect
		(at 144.78 121.92)
		(uuid "406b0f92-293b-40ed-815b-99f4b32cbdfd")
	)
	(no_connect
		(at 162.56 109.22)
		(uuid "5fa3d20d-58a9-4541-84ca-395d2c13d1a4")
	)
	(no_connect
		(at 162.56 81.28)
		(uuid "70cc505c-4004-4be4-8a65-b194959d6369")
	)
	(no_connect
		(at 127 96.52)
		(uuid "7723e38c-761c-42a6-a976-d6e95ff47d53")
	)
	(no_connect
		(at 162.56 88.9)
		(uuid "a96ff1af-8184-425d-953c-dd369c2ae713")
	)
	(no_connect
		(at 162.56 101.6)
		(uuid "b672d769-bf9f-441c-969b-90d348c202c5")
	)
	(no_connect
		(at 147.32 121.92)
		(uuid "be493ae8-31b9-4b27-ba55-9ec131382fe5")
	)
	(no_connect
		(at 162.56 93.98)
		(uuid "d188799a-aad4-469a-b8f4-ca63cfa9ae03")
	)
	(no_connect
		(at 162.56 83.82)
		(uuid "d2f8d4a0-ca93-4467-aec0-651487744d1a")
	)
	(no_connect
		(at 142.24 121.92)
		(uuid "d2f92942-2960-4816-8eb4-b369d77cbb6e")
	)
	(no_connect
		(at 162.56 106.68)
		(uuid "f459e5ca-221b-4c5e-bf88-999305f1ce22")
	)
	(wire
		(pts
			(xy 82.55 139.7) (xy 82.55 143.51)
		)
		(stroke
			(width 0)
			(type default)
		)
		(uuid "3e7c264d-740c-423e-9e2d-49f950e89d62")
	)
	(wire
		(pts
			(xy 69.85 147.32) (xy 69.85 151.13)
		)
		(stroke
			(width 0)
			(type default)
		)
		(uuid "4e464c1c-d2f6-46e7-8815-2024603e7dba")
	)
	(wire
		(pts
			(xy 82.55 148.59) (xy 82.55 151.13)
		)
		(stroke
			(width 0)
			(type default)
		)
		(uuid "542a8bd4-92bb-463a-85df-f7bb06f498ec")
	)
	(wire
		(pts
			(xy 53.34 139.7) (xy 62.23 139.7)
		)
		(stroke
			(width 0)
			(type default)
		)
		(uuid "77f2508b-fb9b-4871-ad18-3c34f0df4ecc")
	)
	(wire
		(pts
			(xy 53.34 148.59) (xy 53.34 151.13)
		)
		(stroke
			(width 0)
			(type default)
		)
		(uuid "8d066ec7-eafc-4bd6-a8c5-8625b4cc12ca")
	)
	(wire
		(pts
			(xy 111.76 143.51) (xy 111.76 147.32)
		)
		(stroke
			(width 0)
			(type default)
		)
		(uuid "9e4f6412-9813-4d65-840b-22d6c8af0ada")
	)
	(wire
		(pts
			(xy 53.34 139.7) (xy 53.34 143.51)
		)
		(stroke
			(width 0)
			(type default)
		)
		(uuid "a71bc861-e7c7-46fb-b8de-85b3c34de9ad")
	)
	(wire
		(pts
			(xy 44.45 139.7) (xy 53.34 139.7)
		)
		(stroke
			(width 0)
			(type default)
		)
		(uuid "b0074db6-11c5-4809-b63a-942e3172f8f8")
	)
	(wire
		(pts
			(xy 76.2 73.66) (xy 76.2 78.74)
		)
		(stroke
			(width 0)
			(type default)
		)
		(uuid "bc1ecd4d-0546-4f81-90fd-1d30e2fde196")
	)
	(wire
		(pts
			(xy 77.47 139.7) (xy 82.55 139.7)
		)
		(stroke
			(width 0)
			(type default)
		)
		(uuid "bce771cc-026d-4d7d-bfc4-ae5d53c5a0e7")
	)
	(wire
		(pts
			(xy 63.5 71.12) (xy 127 71.12)
		)
		(stroke
			(width 0)
			(type default)
		)
		(uuid "be0b1c3b-14e8-4522-9eac-89b3eb4d665f")
	)
	(wire
		(pts
			(xy 116.84 143.51) (xy 111.76 143.51)
		)
		(stroke
			(width 0)
			(type default)
		)
		(uuid "dc6fb342-93bb-4a0b-be21-1aa9c2bfd7fb")
	)
	(wire
		(pts
			(xy 124.46 143.51) (xy 129.54 143.51)
		)
		(stroke
			(width 0)
			(type default)
		)
		(uuid "e18e794a-7ef0-44aa-8bd5-9d526e54554e")
	)
	(wire
		(pts
			(xy 82.55 139.7) (xy 90.17 139.7)
		)
		(stroke
			(width 0)
			(type default)
		)
		(uuid "ead6ce62-e0a3-4c75-a39a-f1a91a42c121")
	)
	(wire
		(pts
			(xy 63.5 73.66) (xy 76.2 73.66)
		)
		(stroke
			(width 0)
			(type default)
		)
		(uuid "efc50a1c-f7cd-4880-a93d-6ef54e20cde3")
	)
	(wire
		(pts
			(xy 63.5 68.58) (xy 127 68.58)
		)
		(stroke
			(width 0)
			(type default)
		)
		(uuid "f31cb37a-5af9-44a8-b48c-6b42d562fc9f")
	)
	(text "Debug-console serial port (UART1)"
		(exclude_from_sim no)
		(at 69.85 60.96 0)
		(effects
			(font
				(size 1.27 1.27)
			)
			(justify right bottom)
		)
		(uuid "e42723af-28a0-4fd7-8c5b-cccc5fbe5317")
	)
	(label "Console TX data"
		(at 86.36 68.58 0)
		(fields_autoplaced yes)
		(effects
			(font
				(size 1.27 1.27)
			)
			(justify left bottom)
		)
		(uuid "e55bfee1-1d6c-4d36-8b22-3b1989b2cc3a")
	)
	(label "Console RX data"
		(at 86.36 71.12 0)
		(fields_autoplaced yes)
		(effects
			(font
				(size 1.27 1.27)
			)
			(justify left bottom)
		)
		(uuid "f2d2f708-103d-4890-b95c-12368b774607")
	)
	(global_label "RX audio to ADC"
		(shape input)
		(at 162.56 91.44 0)
		(fields_autoplaced yes)
		(effects
			(font
				(size 1.27 1.27)
			)
			(justify left)
		)
		(uuid "03df9589-baea-4e5c-87b0-511a05d115fe")
		(property "Intersheetrefs" "${INTERSHEET_REFS}"
			(at 181.6316 91.44 0)
			(effects
				(font
					(size 1.27 1.27)
				)
				(justify left)
				(hide yes)
			)
		)
	)
	(global_label "Run"
		(shape input)
		(at 127 101.6 180)
		(fields_autoplaced yes)
		(effects
			(font
				(size 1.27 1.27)
			)
			(justify right)
		)
		(uuid "0cd800fb-770c-4327-a7e0-36197af4a753")
		(property "Intersheetrefs" "${INTERSHEET_REFS}"
			(at 120.4468 101.6 0)
			(effects
				(font
					(size 1.27 1.27)
				)
				(justify right)
				(hide yes)
			)
		)
	)
	(global_label "PTT"
		(shape input)
		(at 127 114.3 180)
		(fields_autoplaced yes)
		(effects
			(font
				(size 1.27 1.27)
			)
			(justify right)
		)
		(uuid "10a50096-d2a1-4746-a5fd-e067ebb24d17")
		(property "Intersheetrefs" "${INTERSHEET_REFS}"
			(at 117.544 114.3 0)
			(effects
				(font
					(size 1.27 1.27)
				)
				(justify right)
				(hide yes)
			)
		)
	)
	(global_label "TX PWM out"
		(shape input)
		(at 162.56 104.14 0)
		(fields_autoplaced yes)
		(effects
			(font
				(size 1.27 1.27)
			)
			(justify left)
		)
		(uuid "28320151-af5e-4cfa-bff1-1038b00c0f02")
		(property "Intersheetrefs" "${INTERSHEET_REFS}"
			(at 176.854 104.14 0)
			(effects
				(font
					(size 1.27 1.27)
				)
				(justify left)
				(hide yes)
			)
		)
	)
	(global_label "Data 0"
		(shape input)
		(at 127 76.2 180)
		(fields_autoplaced yes)
		(effects
			(font
				(size 1.27 1.27)
			)
			(justify right)
		)
		(uuid "29e53594-8b21-485b-b373-9fe9b297a823")
		(property "Intersheetrefs" "${INTERSHEET_REFS}"
			(at 117.544 76.2 0)
			(effects
				(font
					(size 1.27 1.27)
				)
				(justify right)
				(hide yes)
			)
		)
	)
	(global_label "VSYS"
		(shape input)
		(at 162.56 71.12 0)
		(fields_autoplaced yes)
		(effects
			(font
				(size 1.27 1.27)
			)
			(justify left)
		)
		(uuid "2cca5e29-97ec-475b-a1d5-170bb7ae4c11")
		(property "Intersheetrefs" "${INTERSHEET_REFS}"
			(at 170.1414 71.12 0)
			(effects
				(font
					(size 1.27 1.27)
				)
				(justify left)
				(hide yes)
			)
		)
	)
	(global_label "GND"
		(shape input)
		(at 127 99.06 180)
		(fields_autoplaced yes)
		(effects
			(font
				(size 1.27 1.27)
			)
			(justify right)
		)
		(uuid "2e70b090-7ce5-4234-b8d2-97ffc31c46f5")
		(property "Intersheetrefs" "${INTERSHEET_REFS}"
			(at 120.4468 99.06 0)
			(effects
				(font
					(size 1.27 1.27)
				)
				(justify right)
				(hide yes)
			)
		)
	)
	(global_label "Connect"
		(shape input)
		(at 127 104.14 180)
		(fields_autoplaced yes)
		(effects
			(font
				(size 1.27 1.27)
			)
			(justify right)
		)
		(uuid "396d1c26-f9ce-4fdd-845e-60c8b3bf0e23")
		(property "Intersheetrefs" "${INTERSHEET_REFS}"
			(at 116.3949 104.14 0)
			(effects
				(font
					(size 1.27 1.27)
				)
				(justify right)
				(hide yes)
			)
		)
	)
	(global_label "Carrier"
		(shape input)
		(at 127 106.68 180)
		(fields_autoplaced yes)
		(effects
			(font
				(size 1.27 1.27)
			)
			(justify right)
		)
		(uuid "3b73b207-a6a9-4313-94f7-319bc637ca67")
		(property "Intersheetrefs" "${INTERSHEET_REFS}"
			(at 117.544 106.68 0)
			(effects
				(font
					(size 1.27 1.27)
				)
				(justify right)
				(hide yes)
			)
		)
	)
	(global_label "RX busy"
		(shape input)
		(at 127 91.44 180)
		(fields_autoplaced yes)
		(effects
			(font
				(size 1.27 1.27)
			)
			(justify right)
		)
		(uuid "3bab6e83-daeb-42c4-a3b4-d5cb76e5e7c3")
		(property "Intersheetrefs" "${INTERSHEET_REFS}"
			(at 117.544 91.44 0)
			(effects
				(font
					(size 1.27 1.27)
				)
				(justify right)
				(hide yes)
			)
		)
	)
	(global_label "GND"
		(shape input)
		(at 162.56 111.76 0)
		(fields_autoplaced yes)
		(effects
			(font
				(size 1.27 1.27)
			)
			(justify left)
		)
		(uuid "4047f10c-af8b-4e37-b524-33a1d733f6bd")
		(property "Intersheetrefs" "${INTERSHEET_REFS}"
			(at 169.1132 111.76 0)
			(effects
				(font
					(size 1.27 1.27)
				)
				(justify left)
				(hide yes)
			)
		)
	)
	(global_label "GND"
		(shape input)
		(at 127 73.66 180)
		(fields_autoplaced yes)
		(effects
			(font
				(size 1.27 1.27)
			)
			(justify right)
		)
		(uuid "47788adc-25f9-4cd3-9cb2-7019f6748764")
		(property "Intersheetrefs" "${INTERSHEET_REFS}"
			(at 120.1443 73.66 0)
			(effects
				(font
					(size 1.27 1.27)
				)
				(justify right)
				(hide yes)
			)
		)
	)
	(global_label "Data 1"
		(shape input)
		(at 127 81.28 180)
		(fields_autoplaced yes)
		(effects
			(font
				(size 1.27 1.27)
			)
			(justify right)
		)
		(uuid "48837e72-4aaf-469b-88d1-cbe62ac96a91")
		(property "Intersheetrefs" "${INTERSHEET_REFS}"
			(at 117.544 81.28 0)
			(effects
				(font
					(size 1.27 1.27)
				)
				(justify right)
				(hide yes)
			)
		)
	)
	(global_label "GND"
		(shape input)
		(at 127 86.36 180)
		(fields_autoplaced yes)
		(effects
			(font
				(size 1.27 1.27)
			)
			(justify right)
		)
		(uuid "5102501a-6fdc-4f5a-a7fe-9b5fb30193cc")
		(property "Intersheetrefs" "${INTERSHEET_REFS}"
			(at 120.4468 86.36 0)
			(effects
				(font
					(size 1.27 1.27)
				)
				(justify right)
				(hide yes)
			)
		)
	)
	(global_label "HDLC lock"
		(shape input)
		(at 127 93.98 180)
		(fields_autoplaced yes)
		(effects
			(font
				(size 1.27 1.27)
			)
			(justify right)
		)
		(uuid "5b8fd395-dc0e-4c74-bef7-86c9bcf7d6bd")
		(property "Intersheetrefs" "${INTERSHEET_REFS}"
			(at 114.2177 93.98 0)
			(effects
				(font
					(size 1.27 1.27)
				)
				(justify right)
				(hide yes)
			)
		)
	)
	(global_label "3V3"
		(shape input)
		(at 162.56 78.74 0)
		(fields_autoplaced yes)
		(effects
			(font
				(size 1.27 1.27)
			)
			(justify left)
		)
		(uuid "646d534c-e3ca-4984-b2d7-e943d28327e3")
		(property "Intersheetrefs" "${INTERSHEET_REFS}"
			(at 169.0528 78.74 0)
			(effects
				(font
					(size 1.27 1.27)
				)
				(justify left)
				(hide yes)
			)
		)
	)
	(global_label "GND"
		(shape input)
		(at 162.56 99.06 0)
		(fields_autoplaced yes)
		(effects
			(font
				(size 1.27 1.27)
			)
			(justify left)
		)
		(uuid "6fa3e247-207b-4d4b-a6e6-8c6a2bb8a2f2")
		(property "Intersheetrefs" "${INTERSHEET_REFS}"
			(at 169.1132 99.06 0)
			(effects
				(font
					(size 1.27 1.27)
				)
				(justify left)
				(hide yes)
			)
		)
	)
	(global_label "3V3_EN"
		(shape input)
		(at 129.54 143.51 0)
		(fields_autoplaced yes)
		(effects
			(font
				(size 1.27 1.27)
			)
			(justify left)
		)
		(uuid "70fe6679-fb37-4225-911f-a6e76bfc9d81")
		(property "Intersheetrefs" "${INTERSHEET_REFS}"
			(at 139.4799 143.51 0)
			(effects
				(font
					(size 1.27 1.27)
				)
				(justify left)
				(hide yes)
			)
		)
	)
	(global_label "3V3"
		(shape input)
		(at 90.17 139.7 0)
		(fields_autoplaced yes)
		(effects
			(font
				(size 1.27 1.27)
			)
			(justify left)
		)
		(uuid "743ad0d5-8b57-48b4-81af-efce9b3382e3")
		(property "Intersheetrefs" "${INTERSHEET_REFS}"
			(at 96.6628 139.7 0)
			(effects
				(font
					(size 1.27 1.27)
				)
				(justify left)
				(hide yes)
			)
		)
	)
	(global_label "{slash}Squelch open"
		(shape input)
		(at 162.56 114.3 0)
		(fields_autoplaced yes)
		(effects
			(font
				(size 1.27 1.27)
			)
			(justify left)
		)
		(uuid "75ed5762-3335-4236-b72a-9e6dc8c677f5")
		(property "Intersheetrefs" "${INTERSHEET_REFS}"
			(at 179.8778 114.3 0)
			(effects
				(font
					(size 1.27 1.27)
				)
				(justify left)
				(hide yes)
			)
		)
	)
	(global_label "VSYS"
		(shape input)
		(at 44.45 139.7 180)
		(fields_autoplaced yes)
		(effects
			(font
				(size 1.27 1.27)
			)
			(justify right)
		)
		(uuid "77e08589-e37f-41ba-a950-6208701b1e50")
		(property "Intersheetrefs" "${INTERSHEET_REFS}"
			(at 36.8686 139.7 0)
			(effects
				(font
					(size 1.27 1.27)
				)
				(justify right)
				(hide yes)
			)
		)
	)
	(global_label "TX busy"
		(shape input)
		(at 127 83.82 180)
		(fields_autoplaced yes)
		(effects
			(font
				(size 1.27 1.27)
			)
			(justify right)
		)
		(uuid "92d9a363-9f7d-4f9a-9312-06c244750417")
		(property "Intersheetrefs" "${INTERSHEET_REFS}"
			(at 117.544 83.82 0)
			(effects
				(font
					(size 1.27 1.27)
				)
				(justify right)
				(hide yes)
			)
		)
	)
	(global_label "3V3_EN"
		(shape input)
		(at 162.56 76.2 0)
		(fields_autoplaced yes)
		(effects
			(font
				(size 1.27 1.27)
			)
			(justify left)
		)
		(uuid "949cf007-1dcd-484a-9d74-8ca8a282632f")
		(property "Intersheetrefs" "${INTERSHEET_REFS}"
			(at 172.4999 76.2 0)
			(effects
				(font
					(size 1.27 1.27)
				)
				(justify left)
				(hide yes)
			)
		)
	)
	(global_label "PTT drive"
		(shape input)
		(at 162.56 116.84 0)
		(fields_autoplaced yes)
		(effects
			(font
				(size 1.27 1.27)
			)
			(justify left)
		)
		(uuid "a14e4630-d053-4a5a-b794-8b970276866d")
		(property "Intersheetrefs" "${INTERSHEET_REFS}"
			(at 174.3142 116.84 0)
			(effects
				(font
					(size 1.27 1.27)
				)
				(justify left)
				(hide yes)
			)
		)
	)
	(global_label "Clipping"
		(shape input)
		(at 127 88.9 180)
		(fields_autoplaced yes)
		(effects
			(font
				(size 1.27 1.27)
			)
			(justify right)
		)
		(uuid "b1151b1a-aa60-4f85-9145-2cf2cbf32e53")
		(property "Intersheetrefs" "${INTERSHEET_REFS}"
			(at 117.544 88.9 0)
			(effects
				(font
					(size 1.27 1.27)
				)
				(justify right)
				(hide yes)
			)
		)
	)
	(global_label "GND"
		(shape input)
		(at 127 111.76 180)
		(fields_autoplaced yes)
		(effects
			(font
				(size 1.27 1.27)
			)
			(justify right)
		)
		(uuid "b67e1296-06b7-4891-adb9-5e16f93990f9")
		(property "Intersheetrefs" "${INTERSHEET_REFS}"
			(at 120.4468 111.76 0)
			(effects
				(font
					(size 1.27 1.27)
				)
				(justify right)
				(hide yes)
			)
		)
	)
	(global_label "5V"
		(shape input)
		(at 162.56 68.58 0)
		(fields_autoplaced yes)
		(effects
			(font
				(size 1.27 1.27)
			)
			(justify left)
		)
		(uuid "c0ee1b6c-9d85-4db9-be35-176f8e60e560")
		(property "Intersheetrefs" "${INTERSHEET_REFS}"
			(at 167.8433 68.58 0)
			(effects
				(font
					(size 1.27 1.27)
				)
				(justify left)
				(hide yes)
			)
		)
	)
	(global_label "AGND"
		(shape input)
		(at 162.56 86.36 0)
		(fields_autoplaced yes)
		(effects
			(font
				(size 1.27 1.27)
			)
			(justify left)
		)
		(uuid "c46674e8-9b72-4126-a875-262adfbf36bb")
		(property "Intersheetrefs" "${INTERSHEET_REFS}"
			(at 170.5043 86.36 0)
			(effects
				(font
					(size 1.27 1.27)
				)
				(justify left)
				(hide yes)
			)
		)
	)
	(global_label "RFU 1"
		(shape input)
		(at 127 78.74 180)
		(fields_autoplaced yes)
		(effects
			(font
				(size 1.27 1.27)
			)
			(justify right)
		)
		(uuid "e7274555-5c55-4c9b-ac54-8320358b0fe3")
		(property "Intersheetrefs" "${INTERSHEET_REFS}"
			(at 117.544 78.74 0)
			(effects
				(font
					(size 1.27 1.27)
				)
				(justify right)
				(hide yes)
			)
		)
	)
	(global_label "WS2812B data"
		(shape input)
		(at 127 116.84 180)
		(fields_autoplaced yes)
		(effects
			(font
				(size 1.27 1.27)
			)
			(justify right)
		)
		(uuid "f957dbf8-365d-42dd-8334-7d8df1f306b8")
		(property "Intersheetrefs" "${INTERSHEET_REFS}"
			(at 110.1056 116.84 0)
			(effects
				(font
					(size 1.27 1.27)
				)
				(justify right)
				(hide yes)
			)
		)
	)
	(global_label "Good packet"
		(shape input)
		(at 127 109.22 180)
		(fields_autoplaced yes)
		(effects
			(font
				(size 1.27 1.27)
			)
			(justify right)
		)
		(uuid "fbaf5714-8173-4ae0-a5ec-6685959f87ee")
		(property "Intersheetrefs" "${INTERSHEET_REFS}"
			(at 117.544 109.22 0)
			(effects
				(font
					(size 1.27 1.27)
				)
				(justify right)
				(hide yes)
			)
		)
	)
	(global_label "GND"
		(shape input)
		(at 162.56 73.66 0)
		(fields_autoplaced yes)
		(effects
			(font
				(size 1.27 1.27)
			)
			(justify left)
		)
		(uuid "fec403f1-5bb5-4bfe-80a1-4e8b39de809e")
		(property "Intersheetrefs" "${INTERSHEET_REFS}"
			(at 169.1132 73.66 0)
			(effects
				(font
					(size 1.27 1.27)
				)
				(justify left)
				(hide yes)
			)
		)
	)
	(symbol
		(lib_id "power:GND")
		(at 53.34 151.13 0)
		(mirror y)
		(unit 1)
		(exclude_from_sim no)
		(in_bom yes)
		(on_board yes)
		(dnp no)
		(fields_autoplaced yes)
		(uuid "06e6dcb5-7c4d-4cb6-a1f5-3656c3790d5c")
		(property "Reference" "#PWR0103"
			(at 53.34 157.48 0)
			(effects
				(font
					(size 1.27 1.27)
				)
				(hide yes)
			)
		)
		(property "Value" "GND"
			(at 53.34 156.21 0)
			(effects
				(font
					(size 1.27 1.27)
				)
			)
		)
		(property "Footprint" ""
			(at 53.34 151.13 0)
			(effects
				(font
					(size 1.27 1.27)
				)
				(hide yes)
			)
		)
		(property "Datasheet" ""
			(at 53.34 151.13 0)
			(effects
				(font
					(size 1.27 1.27)
				)
				(hide yes)
			)
		)
		(property "Description" "Power symbol creates a global label with name \"GND\" , ground"
			(at 53.34 151.13 0)
			(effects
				(font
					(size 1.27 1.27)
				)
				(hide yes)
			)
		)
		(pin "1"
			(uuid "a0d4e1d1-39d2-44a6-bfe0-e82a0a069007")
		)
		(instances
			(project "OpenTNC-Pico"
				(path "/2fae58be-b645-45b3-b2b5-5e98e31fb51e"
					(reference "#PWR0103")
					(unit 1)
				)
			)
		)
	)
	(symbol
		(lib_id "Pico:Pico")
		(at 144.78 92.71 0)
		(unit 1)
		(exclude_from_sim no)
		(in_bom yes)
		(on_board yes)
		(dnp no)
		(fields_autoplaced yes)
		(uuid "259116b2-3fd8-4956-aaaa-5285c371057e")
		(property "Reference" "U101"
			(at 144.78 60.96 0)
			(effects
				(font
					(size 1.27 1.27)
				)
			)
		)
		(property "Value" "Pico"
			(at 144.78 63.5 0)
			(effects
				(font
					(size 1.27 1.27)
				)
			)
		)
		(property "Footprint" "Pico:RPi_Pico_SMD_TH"
			(at 144.78 92.71 90)
			(effects
				(font
					(size 1.27 1.27)
				)
				(hide yes)
			)
		)
		(property "Datasheet" ""
			(at 144.78 92.71 0)
			(effects
				(font
					(size 1.27 1.27)
				)
				(hide yes)
			)
		)
		(property "Description" ""
			(at 144.78 92.71 0)
			(effects
				(font
					(size 1.27 1.27)
				)
				(hide yes)
			)
		)
		(property "DigiKey" "2648-SC0915CT-ND"
			(at 144.78 92.71 0)
			(effects
				(font
					(size 1.27 1.27)
				)
				(hide yes)
			)
		)
		(property "Mouser" "358-SC0915 "
			(at 144.78 92.71 0)
			(effects
				(font
					(size 1.27 1.27)
				)
				(hide yes)
			)
		)
		(pin "24"
			(uuid "3d915bb0-e515-403f-89dd-269da6641923")
		)
		(pin "19"
			(uuid "5f7b476f-e4e4-488f-977e-063fa3170ebb")
		)
		(pin "7"
			(uuid "737caa4a-259a-4e32-96fd-503dfa8750d7")
		)
		(pin "36"
			(uuid "321e5f73-ae4d-403c-b165-97e500175bd7")
		)
		(pin "34"
			(uuid "39a65e91-078c-4b11-847e-35908372b3fe")
		)
		(pin "39"
			(uuid "6caa276f-db80-4925-88ba-e20cb4bc4976")
		)
		(pin "42"
			(uuid "e4b3eca7-f64f-473a-807d-afdf8de35ece")
		)
		(pin "43"
			(uuid "570cf64b-8e83-4b2f-a7ce-ec83a289bed2")
		)
		(pin "6"
			(uuid "bdafcc89-ea54-4898-8088-7d44357cee9f")
		)
		(pin "11"
			(uuid "326a5f6e-f35a-4430-b393-f76e5a216216")
		)
		(pin "1"
			(uuid "98700031-a6ef-4d2e-9df7-1492e59e7610")
		)
		(pin "12"
			(uuid "d8403ab4-4718-4afb-9f64-48b9364ebd45")
		)
		(pin "13"
			(uuid "790a5599-2618-4998-a32e-d48b14d1cecd")
		)
		(pin "31"
			(uuid "eead799c-1a7c-47e7-b67d-c05216671b1d")
		)
		(pin "15"
			(uuid "7b6b0a15-aad0-4122-9bf2-bd6d9e3c6702")
		)
		(pin "33"
			(uuid "df765f1d-9718-4608-a770-755f3bb5d0d9")
		)
		(pin "2"
			(uuid "b8741721-3003-424d-bedc-ab4559e07c17")
		)
		(pin "14"
			(uuid "2f1aa073-7830-4603-9838-3d0690f25f18")
		)
		(pin "35"
			(uuid "460e3f14-0294-4e9e-b36b-496a851717ca")
		)
		(pin "21"
			(uuid "6095e41b-4cdf-456f-b989-03609fdd80d8")
		)
		(pin "20"
			(uuid "97f2dc42-d079-426a-b43d-81618ad622f1")
		)
		(pin "32"
			(uuid "f876e42c-a8c7-4c43-a141-090bbe70043a")
		)
		(pin "3"
			(uuid "d18d91bf-88fe-4c58-9740-2913ee8ef770")
		)
		(pin "5"
			(uuid "b612a4d7-d542-4ef3-80cb-87661ed6b3e4")
		)
		(pin "40"
			(uuid "3b54f3df-3b4b-4b11-942e-2e366826aa2b")
		)
		(pin "25"
			(uuid "1ecaaa8d-8b6a-4d90-991f-c68d44090bdd")
		)
		(pin "23"
			(uuid "c50d1c96-7c94-47e1-bb6b-1e37ee9f1a59")
		)
		(pin "27"
			(uuid "054678f8-ee40-4087-bebc-44a998328465")
		)
		(pin "30"
			(uuid "db66cfbe-075d-4858-a10a-cae05527f989")
		)
		(pin "37"
			(uuid "6e528fb0-0eb7-4273-8a1f-1247d48a47d5")
		)
		(pin "8"
			(uuid "158d168d-b86a-4786-8c1c-8958959864ce")
		)
		(pin "18"
			(uuid "586d4738-e90f-4a8a-9116-8d53562042df")
		)
		(pin "41"
			(uuid "2a7f815d-b4cb-41ba-832d-45a78fbe8f17")
		)
		(pin "28"
			(uuid "b5ad8740-5539-4efd-b26b-7c4796f2d5e6")
		)
		(pin "9"
			(uuid "31ff5827-fd04-47f2-9fc1-9e207bbae8ac")
		)
		(pin "22"
			(uuid "a39ae8c8-d219-46f3-bf0f-05e6d44e2ad8")
		)
		(pin "10"
			(uuid "6b362256-11d2-4379-992a-df47fe63b241")
		)
		(pin "26"
			(uuid "1e6e97d7-61de-4f15-8130-e28241dd9f57")
		)
		(pin "16"
			(uuid "975d5f8d-ebd0-470d-ac6e-f053764aaf9d")
		)
		(pin "29"
			(uuid "73ea46df-5bdf-4fa7-9b58-b9d04b0fcce4")
		)
		(pin "17"
			(uuid "374e1e4e-3de5-475c-906b-242b8c6bfac5")
		)
		(pin "38"
			(uuid "7be42b5a-480a-4997-87fe-d272abd1c15d")
		)
		(pin "4"
			(uuid "73494e7a-85af-47ed-8ac5-7a99f635e63e")
		)
		(instances
			(project ""
				(path "/2fae58be-b645-45b3-b2b5-5e98e31fb51e"
					(reference "U101")
					(unit 1)
				)
			)
		)
	)
	(symbol
		(lib_id "Device:C_Polarized_Small")
		(at 82.55 146.05 0)
		(mirror y)
		(unit 1)
		(exclude_from_sim no)
		(in_bom yes)
		(on_board yes)
		(dnp no)
		(uuid "37235b7f-69a9-4b50-b12c-9c05c8ccc4b9")
		(property "Reference" "C102"
			(at 85.09 146.774 0)
			(effects
				(font
					(size 1.27 1.27)
				)
				(justify right)
			)
		)
		(property "Value" "10u"
			(at 85.09 144.234 0)
			(effects
				(font
					(size 1.27 1.27)
				)
				(justify right)
			)
		)
		(property "Footprint" "Capacitor_THT:CP_Radial_D5.0mm_P2.50mm"
			(at 82.55 146.05 0)
			(effects
				(font
					(size 1.27 1.27)
				)
				(hide yes)
			)
		)
		(property "Datasheet" "~"
			(at 82.55 146.05 0)
			(effects
				(font
					(size 1.27 1.27)
				)
				(hide yes)
			)
		)
		(property "Description" "Polarized capacitor, small symbol"
			(at 82.55 146.05 0)
			(effects
				(font
					(size 1.27 1.27)
				)
				(hide yes)
			)
		)
		(property "DigiKey" "P19445CT-ND"
			(at 82.55 146.05 0)
			(effects
				(font
					(size 1.27 1.27)
				)
				(hide yes)
			)
		)
		(property "Mouser" "667-ECA-1HHG100I"
			(at 82.55 146.05 0)
			(effects
				(font
					(size 1.27 1.27)
				)
				(hide yes)
			)
		)
		(pin "1"
			(uuid "d29ebefa-76af-4b46-a1d8-22ec7a0a46be")
		)
		(pin "2"
			(uuid "03dbd8ec-a1d3-4184-9aa6-351e47196274")
		)
		(instances
			(project "OpenTNC-Pico"
				(path "/2fae58be-b645-45b3-b2b5-5e98e31fb51e"
					(reference "C102")
					(unit 1)
				)
			)
		)
	)
	(symbol
		(lib_id "Mechanical:MountingHole")
		(at 22.86 177.8 0)
		(unit 1)
		(exclude_from_sim yes)
		(in_bom no)
		(on_board yes)
		(dnp no)
		(fields_autoplaced yes)
		(uuid "430b7fb6-96f4-45a4-9097-e11d69e65a34")
		(property "Reference" "H101"
			(at 25.4 176.5299 0)
			(effects
				(font
					(size 1.27 1.27)
				)
				(justify left)
			)
		)
		(property "Value" "MountingHole"
			(at 25.4 179.0699 0)
			(effects
				(font
					(size 1.27 1.27)
				)
				(justify left)
			)
		)
		(property "Footprint" "MountingHole:MountingHole_3.7mm"
			(at 22.86 177.8 0)
			(effects
				(font
					(size 1.27 1.27)
				)
				(hide yes)
			)
		)
		(property "Datasheet" "~"
			(at 22.86 177.8 0)
			(effects
				(font
					(size 1.27 1.27)
				)
				(hide yes)
			)
		)
		(property "Description" "Mounting Hole without connection"
			(at 22.86 177.8 0)
			(effects
				(font
					(size 1.27 1.27)
				)
				(hide yes)
			)
		)
		(property "DigiKey" ""
			(at 22.86 177.8 0)
			(effects
				(font
					(size 1.27 1.27)
				)
				(hide yes)
			)
		)
		(property "Mouser" ""
			(at 22.86 177.8 0)
			(effects
				(font
					(size 1.27 1.27)
				)
				(hide yes)
			)
		)
		(instances
			(project "OpenTNC-Pico"
				(path "/2fae58be-b645-45b3-b2b5-5e98e31fb51e"
					(reference "H101")
					(unit 1)
				)
			)
		)
	)
	(symbol
		(lib_id "power:GND")
		(at 76.2 78.74 0)
		(mirror y)
		(unit 1)
		(exclude_from_sim no)
		(in_bom yes)
		(on_board yes)
		(dnp no)
		(fields_autoplaced yes)
		(uuid "4c6a14c0-bbdd-4035-b59a-5f628d8cf827")
		(property "Reference" "#PWR0101"
			(at 76.2 85.09 0)
			(effects
				(font
					(size 1.27 1.27)
				)
				(hide yes)
			)
		)
		(property "Value" "GND"
			(at 76.2 83.82 0)
			(effects
				(font
					(size 1.27 1.27)
				)
			)
		)
		(property "Footprint" ""
			(at 76.2 78.74 0)
			(effects
				(font
					(size 1.27 1.27)
				)
				(hide yes)
			)
		)
		(property "Datasheet" ""
			(at 76.2 78.74 0)
			(effects
				(font
					(size 1.27 1.27)
				)
				(hide yes)
			)
		)
		(property "Description" "Power symbol creates a global label with name \"GND\" , ground"
			(at 76.2 78.74 0)
			(effects
				(font
					(size 1.27 1.27)
				)
				(hide yes)
			)
		)
		(pin "1"
			(uuid "e0c0e1c5-df23-4e5e-909d-f21231578845")
		)
		(instances
			(project "OpenTNC-Pico"
				(path "/2fae58be-b645-45b3-b2b5-5e98e31fb51e"
					(reference "#PWR0101")
					(unit 1)
				)
			)
		)
	)
	(symbol
		(lib_id "Jumper:SolderJumper_2_Bridged")
		(at 120.65 143.51 0)
		(unit 1)
		(exclude_from_sim yes)
		(in_bom no)
		(on_board yes)
		(dnp no)
		(fields_autoplaced yes)
		(uuid "505898ed-0d62-43d6-a667-07cb279104e3")
		(property "Reference" "JP101"
			(at 120.65 137.16 0)
			(effects
				(font
					(size 1.27 1.27)
				)
			)
		)
		(property "Value" "SolderJumper_2_Bridged"
			(at 120.65 139.7 0)
			(effects
				(font
					(size 1.27 1.27)
				)
			)
		)
		(property "Footprint" "Jumper:SolderJumper-2_P1.3mm_Bridged_RoundedPad1.0x1.5mm"
			(at 120.65 143.51 0)
			(effects
				(font
					(size 1.27 1.27)
				)
				(hide yes)
			)
		)
		(property "Datasheet" "~"
			(at 120.65 143.51 0)
			(effects
				(font
					(size 1.27 1.27)
				)
				(hide yes)
			)
		)
		(property "Description" "Solder Jumper, 2-pole, closed/bridged"
			(at 120.65 143.51 0)
			(effects
				(font
					(size 1.27 1.27)
				)
				(hide yes)
			)
		)
		(pin "2"
			(uuid "cc7acb67-7380-42b3-85cb-e5237429ddf0")
		)
		(pin "1"
			(uuid "d07c58df-3da4-43ef-b4b2-c6d5099fcbaa")
		)
		(instances
			(project ""
				(path "/2fae58be-b645-45b3-b2b5-5e98e31fb51e"
					(reference "JP101")
					(unit 1)
				)
			)
		)
	)
	(symbol
		(lib_id "Mechanical:MountingHole")
		(at 22.86 184.15 0)
		(unit 1)
		(exclude_from_sim yes)
		(in_bom no)
		(on_board yes)
		(dnp no)
		(fields_autoplaced yes)
		(uuid "51e53642-e088-4c08-a9ae-254c84197b4f")
		(property "Reference" "H102"
			(at 25.4 182.8799 0)
			(effects
				(font
					(size 1.27 1.27)
				)
				(justify left)
			)
		)
		(property "Value" "MountingHole"
			(at 25.4 185.4199 0)
			(effects
				(font
					(size 1.27 1.27)
				)
				(justify left)
			)
		)
		(property "Footprint" "MountingHole:MountingHole_3.7mm"
			(at 22.86 184.15 0)
			(effects
				(font
					(size 1.27 1.27)
				)
				(hide yes)
			)
		)
		(property "Datasheet" "~"
			(at 22.86 184.15 0)
			(effects
				(font
					(size 1.27 1.27)
				)
				(hide yes)
			)
		)
		(property "Description" "Mounting Hole without connection"
			(at 22.86 184.15 0)
			(effects
				(font
					(size 1.27 1.27)
				)
				(hide yes)
			)
		)
		(property "DigiKey" ""
			(at 22.86 184.15 0)
			(effects
				(font
					(size 1.27 1.27)
				)
				(hide yes)
			)
		)
		(property "Mouser" ""
			(at 22.86 184.15 0)
			(effects
				(font
					(size 1.27 1.27)
				)
				(hide yes)
			)
		)
		(instances
			(project "OpenTNC-Pico"
				(path "/2fae58be-b645-45b3-b2b5-5e98e31fb51e"
					(reference "H102")
					(unit 1)
				)
			)
		)
	)
	(symbol
		(lib_id "power:GND")
		(at 50.8 189.23 0)
		(mirror y)
		(unit 1)
		(exclude_from_sim no)
		(in_bom yes)
		(on_board yes)
		(dnp no)
		(fields_autoplaced yes)
		(uuid "7d268b81-b84a-4a47-85fd-eae9bd3858ee")
		(property "Reference" "#PWR0102"
			(at 50.8 195.58 0)
			(effects
				(font
					(size 1.27 1.27)
				)
				(hide yes)
			)
		)
		(property "Value" "GND"
			(at 50.8 194.31 0)
			(effects
				(font
					(size 1.27 1.27)
				)
			)
		)
		(property "Footprint" ""
			(at 50.8 189.23 0)
			(effects
				(font
					(size 1.27 1.27)
				)
				(hide yes)
			)
		)
		(property "Datasheet" ""
			(at 50.8 189.23 0)
			(effects
				(font
					(size 1.27 1.27)
				)
				(hide yes)
			)
		)
		(property "Description" "Power symbol creates a global label with name \"GND\" , ground"
			(at 50.8 189.23 0)
			(effects
				(font
					(size 1.27 1.27)
				)
				(hide yes)
			)
		)
		(pin "1"
			(uuid "bce299eb-ec10-43a0-8da4-c93cbecb6e54")
		)
		(instances
			(project "OpenTNC-Pico"
				(path "/2fae58be-b645-45b3-b2b5-5e98e31fb51e"
					(reference "#PWR0102")
					(unit 1)
				)
			)
		)
	)
	(symbol
		(lib_id "power:GND")
		(at 69.85 151.13 0)
		(mirror y)
		(unit 1)
		(exclude_from_sim no)
		(in_bom yes)
		(on_board yes)
		(dnp no)
		(fields_autoplaced yes)
		(uuid "7dfde802-e832-47e9-9c49-b5fab176c1e4")
		(property "Reference" "#PWR0106"
			(at 69.85 157.48 0)
			(effects
				(font
					(size 1.27 1.27)
				)
				(hide yes)
			)
		)
		(property "Value" "GND"
			(at 69.85 156.21 0)
			(effects
				(font
					(size 1.27 1.27)
				)
			)
		)
		(property "Footprint" ""
			(at 69.85 151.13 0)
			(effects
				(font
					(size 1.27 1.27)
				)
				(hide yes)
			)
		)
		(property "Datasheet" ""
			(at 69.85 151.13 0)
			(effects
				(font
					(size 1.27 1.27)
				)
				(hide yes)
			)
		)
		(property "Description" "Power symbol creates a global label with name \"GND\" , ground"
			(at 69.85 151.13 0)
			(effects
				(font
					(size 1.27 1.27)
				)
				(hide yes)
			)
		)
		(pin "1"
			(uuid "986cfa65-813a-4248-b765-2f9e752340b2")
		)
		(instances
			(project "OpenTNC-Pico"
				(path "/2fae58be-b645-45b3-b2b5-5e98e31fb51e"
					(reference "#PWR0106")
					(unit 1)
				)
			)
		)
	)
	(symbol
		(lib_id "power:GND")
		(at 82.55 151.13 0)
		(mirror y)
		(unit 1)
		(exclude_from_sim no)
		(in_bom yes)
		(on_board yes)
		(dnp no)
		(fields_autoplaced yes)
		(uuid "ac38dbc3-867a-4dd1-b61d-62fc2077eeac")
		(property "Reference" "#PWR0104"
			(at 82.55 157.48 0)
			(effects
				(font
					(size 1.27 1.27)
				)
				(hide yes)
			)
		)
		(property "Value" "GND"
			(at 82.55 156.21 0)
			(effects
				(font
					(size 1.27 1.27)
				)
			)
		)
		(property "Footprint" ""
			(at 82.55 151.13 0)
			(effects
				(font
					(size 1.27 1.27)
				)
				(hide yes)
			)
		)
		(property "Datasheet" ""
			(at 82.55 151.13 0)
			(effects
				(font
					(size 1.27 1.27)
				)
				(hide yes)
			)
		)
		(property "Description" "Power symbol creates a global label with name \"GND\" , ground"
			(at 82.55 151.13 0)
			(effects
				(font
					(size 1.27 1.27)
				)
				(hide yes)
			)
		)
		(pin "1"
			(uuid "f4bfe540-008b-49b8-b1d9-b41fa7ee8ca6")
		)
		(instances
			(project "OpenTNC-Pico"
				(path "/2fae58be-b645-45b3-b2b5-5e98e31fb51e"
					(reference "#PWR0104")
					(unit 1)
				)
			)
		)
	)
	(symbol
		(lib_id "Mechanical:MountingHole")
		(at 22.86 196.85 0)
		(unit 1)
		(exclude_from_sim yes)
		(in_bom no)
		(on_board yes)
		(dnp no)
		(fields_autoplaced yes)
		(uuid "aebc0c1e-19d3-466d-87e8-2579e30f9d11")
		(property "Reference" "H104"
			(at 25.4 195.5799 0)
			(effects
				(font
					(size 1.27 1.27)
				)
				(justify left)
			)
		)
		(property "Value" "MountingHole"
			(at 25.4 198.1199 0)
			(effects
				(font
					(size 1.27 1.27)
				)
				(justify left)
			)
		)
		(property "Footprint" "MountingHole:MountingHole_3.7mm"
			(at 22.86 196.85 0)
			(effects
				(font
					(size 1.27 1.27)
				)
				(hide yes)
			)
		)
		(property "Datasheet" "~"
			(at 22.86 196.85 0)
			(effects
				(font
					(size 1.27 1.27)
				)
				(hide yes)
			)
		)
		(property "Description" "Mounting Hole without connection"
			(at 22.86 196.85 0)
			(effects
				(font
					(size 1.27 1.27)
				)
				(hide yes)
			)
		)
		(property "DigiKey" ""
			(at 22.86 196.85 0)
			(effects
				(font
					(size 1.27 1.27)
				)
				(hide yes)
			)
		)
		(property "Mouser" ""
			(at 22.86 196.85 0)
			(effects
				(font
					(size 1.27 1.27)
				)
				(hide yes)
			)
		)
		(instances
			(project "OpenTNC-Pico"
				(path "/2fae58be-b645-45b3-b2b5-5e98e31fb51e"
					(reference "H104")
					(unit 1)
				)
			)
		)
	)
	(symbol
		(lib_id "Regulator_Linear:LP2950-3.3_TO92")
		(at 69.85 139.7 0)
		(unit 1)
		(exclude_from_sim no)
		(in_bom yes)
		(on_board yes)
		(dnp no)
		(fields_autoplaced yes)
		(uuid "b8639c0b-f1ea-46d5-a2f7-914b71a87758")
		(property "Reference" "U102"
			(at 69.85 133.35 0)
			(effects
				(font
					(size 1.27 1.27)
				)
			)
		)
		(property "Value" "LP2950-3.3"
			(at 69.85 135.89 0)
			(effects
				(font
					(size 1.27 1.27)
				)
			)
		)
		(property "Footprint" "Package_TO_SOT_THT:TO-92_Inline_Wide"
			(at 69.85 133.985 0)
			(effects
				(font
					(size 1.27 1.27)
					(italic yes)
				)
				(hide yes)
			)
		)
		(property "Datasheet" "http://www.ti.com/lit/ds/symlink/lp2950.pdf"
			(at 69.85 140.97 0)
			(effects
				(font
					(size 1.27 1.27)
				)
				(hide yes)
			)
		)
		(property "Description" "Positive 100mA 30V Linear Micropower Voltage Regulator, Fixed Output 3.3V, TO-92"
			(at 69.85 139.7 0)
			(effects
				(font
					(size 1.27 1.27)
				)
				(hide yes)
			)
		)
		(property "DigiKey" "296-LP2950-33LPRE3CT-ND"
			(at 69.85 139.7 0)
			(effects
				(font
					(size 1.27 1.27)
				)
				(hide yes)
			)
		)
		(property "Mouser" "595-LP2950-33LPRE3"
			(at 69.85 139.7 0)
			(effects
				(font
					(size 1.27 1.27)
				)
				(hide yes)
			)
		)
		(pin "3"
			(uuid "acdfd2ce-41c1-4133-b2e4-06138eaccf76")
		)
		(pin "1"
			(uuid "a1f15b22-b185-4e7b-885c-cc1fb77f6422")
		)
		(pin "2"
			(uuid "20086890-7a01-4cc2-bafb-d0f064670051")
		)
		(instances
			(project ""
				(path "/2fae58be-b645-45b3-b2b5-5e98e31fb51e"
					(reference "U102")
					(unit 1)
				)
			)
		)
	)
	(symbol
		(lib_id "power:GND")
		(at 111.76 147.32 0)
		(mirror y)
		(unit 1)
		(exclude_from_sim no)
		(in_bom yes)
		(on_board yes)
		(dnp no)
		(fields_autoplaced yes)
		(uuid "c9bb2e2a-b95f-4235-b024-b7ea97d1f039")
		(property "Reference" "#PWR0105"
			(at 111.76 153.67 0)
			(effects
				(font
					(size 1.27 1.27)
				)
				(hide yes)
			)
		)
		(property "Value" "GND"
			(at 111.76 152.4 0)
			(effects
				(font
					(size 1.27 1.27)
				)
			)
		)
		(property "Footprint" ""
			(at 111.76 147.32 0)
			(effects
				(font
					(size 1.27 1.27)
				)
				(hide yes)
			)
		)
		(property "Datasheet" ""
			(at 111.76 147.32 0)
			(effects
				(font
					(size 1.27 1.27)
				)
				(hide yes)
			)
		)
		(property "Description" "Power symbol creates a global label with name \"GND\" , ground"
			(at 111.76 147.32 0)
			(effects
				(font
					(size 1.27 1.27)
				)
				(hide yes)
			)
		)
		(pin "1"
			(uuid "8606eeb1-4440-4e22-a963-c9ac77eb1835")
		)
		(instances
			(project "OpenTNC-Pico"
				(path "/2fae58be-b645-45b3-b2b5-5e98e31fb51e"
					(reference "#PWR0105")
					(unit 1)
				)
			)
		)
	)
	(symbol
		(lib_id "Connector_Generic:Conn_01x03")
		(at 58.42 71.12 180)
		(unit 1)
		(exclude_from_sim no)
		(in_bom no)
		(on_board yes)
		(dnp no)
		(uuid "cb38b638-849d-460d-b723-5a78a3ecdb91")
		(property "Reference" "J101"
			(at 55.88 72.39 0)
			(effects
				(font
					(size 1.27 1.27)
				)
				(justify left)
			)
		)
		(property "Value" "Conn_01x03"
			(at 55.88 69.85 0)
			(effects
				(font
					(size 1.27 1.27)
				)
				(justify left)
			)
		)
		(property "Footprint" "Connector_PinHeader_2.54mm:PinHeader_1x03_P2.54mm_Vertical"
			(at 58.42 71.12 0)
			(effects
				(font
					(size 1.27 1.27)
				)
				(hide yes)
			)
		)
		(property "Datasheet" "~"
			(at 58.42 71.12 0)
			(effects
				(font
					(size 1.27 1.27)
				)
				(hide yes)
			)
		)
		(property "Description" "Generic connector, single row, 01x03, script generated (kicad-library-utils/schlib/autogen/connector/)"
			(at 58.42 71.12 0)
			(effects
				(font
					(size 1.27 1.27)
				)
				(hide yes)
			)
		)
		(property "DigiKey" ""
			(at 58.42 71.12 0)
			(effects
				(font
					(size 1.27 1.27)
				)
				(hide yes)
			)
		)
		(property "Mouser" ""
			(at 58.42 71.12 0)
			(effects
				(font
					(size 1.27 1.27)
				)
				(hide yes)
			)
		)
		(pin "1"
			(uuid "ddfd8aac-41b1-46e0-90a2-1596dba0de18")
		)
		(pin "2"
			(uuid "f3f9158f-3b6b-46b9-9de9-a5b28bfdce9a")
		)
		(pin "3"
			(uuid "2f3dc715-d3da-4716-ba5f-7ec6564cf22e")
		)
		(instances
			(project "OpenTNC-Pico"
				(path "/2fae58be-b645-45b3-b2b5-5e98e31fb51e"
					(reference "J101")
					(unit 1)
				)
			)
		)
	)
	(symbol
		(lib_id "power:PWR_FLAG")
		(at 50.8 189.23 0)
		(unit 1)
		(exclude_from_sim no)
		(in_bom yes)
		(on_board yes)
		(dnp no)
		(fields_autoplaced yes)
		(uuid "db1e46fe-8993-4eb5-b18a-b3764c2a45ab")
		(property "Reference" "#FLG0101"
			(at 50.8 187.325 0)
			(effects
				(font
					(size 1.27 1.27)
				)
				(hide yes)
			)
		)
		(property "Value" "PWR_FLAG"
			(at 50.8 184.15 0)
			(effects
				(font
					(size 1.27 1.27)
				)
			)
		)
		(property "Footprint" ""
			(at 50.8 189.23 0)
			(effects
				(font
					(size 1.27 1.27)
				)
				(hide yes)
			)
		)
		(property "Datasheet" "~"
			(at 50.8 189.23 0)
			(effects
				(font
					(size 1.27 1.27)
				)
				(hide yes)
			)
		)
		(property "Description" "Special symbol for telling ERC where power comes from"
			(at 50.8 189.23 0)
			(effects
				(font
					(size 1.27 1.27)
				)
				(hide yes)
			)
		)
		(pin "1"
			(uuid "83570846-9e87-4b32-88b9-50af1536a5f5")
		)
		(instances
			(project ""
				(path "/2fae58be-b645-45b3-b2b5-5e98e31fb51e"
					(reference "#FLG0101")
					(unit 1)
				)
			)
		)
	)
	(symbol
		(lib_id "Device:C_Polarized_Small")
		(at 53.34 146.05 0)
		(mirror y)
		(unit 1)
		(exclude_from_sim no)
		(in_bom yes)
		(on_board yes)
		(dnp no)
		(uuid "e11521c4-721e-4151-aefd-4fcb1bc8d1a3")
		(property "Reference" "C101"
			(at 55.88 146.774 0)
			(effects
				(font
					(size 1.27 1.27)
				)
				(justify right)
			)
		)
		(property "Value" "10u"
			(at 55.88 144.234 0)
			(effects
				(font
					(size 1.27 1.27)
				)
				(justify right)
			)
		)
		(property "Footprint" "Capacitor_THT:CP_Radial_D5.0mm_P2.50mm"
			(at 53.34 146.05 0)
			(effects
				(font
					(size 1.27 1.27)
				)
				(hide yes)
			)
		)
		(property "Datasheet" "~"
			(at 53.34 146.05 0)
			(effects
				(font
					(size 1.27 1.27)
				)
				(hide yes)
			)
		)
		(property "Description" "Polarized capacitor, small symbol"
			(at 53.34 146.05 0)
			(effects
				(font
					(size 1.27 1.27)
				)
				(hide yes)
			)
		)
		(property "DigiKey" "P19445CT-ND"
			(at 53.34 146.05 0)
			(effects
				(font
					(size 1.27 1.27)
				)
				(hide yes)
			)
		)
		(property "Mouser" "667-ECA-1HHG100I"
			(at 53.34 146.05 0)
			(effects
				(font
					(size 1.27 1.27)
				)
				(hide yes)
			)
		)
		(pin "1"
			(uuid "96ab76bc-2e8f-45ed-b3fe-3fc6f21a0677")
		)
		(pin "2"
			(uuid "49fad804-7aab-40c3-8eaa-9b7f9ed0cc8d")
		)
		(instances
			(project "OpenTNC-Pico"
				(path "/2fae58be-b645-45b3-b2b5-5e98e31fb51e"
					(reference "C101")
					(unit 1)
				)
			)
		)
	)
	(symbol
		(lib_id "Mechanical:MountingHole")
		(at 22.86 190.5 0)
		(unit 1)
		(exclude_from_sim yes)
		(in_bom no)
		(on_board yes)
		(dnp no)
		(fields_autoplaced yes)
		(uuid "f434e209-35ae-464b-be26-42944ef6c13e")
		(property "Reference" "H103"
			(at 25.4 189.2299 0)
			(effects
				(font
					(size 1.27 1.27)
				)
				(justify left)
			)
		)
		(property "Value" "MountingHole"
			(at 25.4 191.7699 0)
			(effects
				(font
					(size 1.27 1.27)
				)
				(justify left)
			)
		)
		(property "Footprint" "MountingHole:MountingHole_3.7mm"
			(at 22.86 190.5 0)
			(effects
				(font
					(size 1.27 1.27)
				)
				(hide yes)
			)
		)
		(property "Datasheet" "~"
			(at 22.86 190.5 0)
			(effects
				(font
					(size 1.27 1.27)
				)
				(hide yes)
			)
		)
		(property "Description" "Mounting Hole without connection"
			(at 22.86 190.5 0)
			(effects
				(font
					(size 1.27 1.27)
				)
				(hide yes)
			)
		)
		(property "DigiKey" ""
			(at 22.86 190.5 0)
			(effects
				(font
					(size 1.27 1.27)
				)
				(hide yes)
			)
		)
		(property "Mouser" ""
			(at 22.86 190.5 0)
			(effects
				(font
					(size 1.27 1.27)
				)
				(hide yes)
			)
		)
		(instances
			(project "OpenTNC-Pico"
				(path "/2fae58be-b645-45b3-b2b5-5e98e31fb51e"
					(reference "H103")
					(unit 1)
				)
			)
		)
	)
	(sheet
		(at 200.66 55.88)
		(size 25.4 22.86)
		(fields_autoplaced yes)
		(stroke
			(width 0.1524)
			(type solid)
		)
		(fill
			(color 0 0 0 0.0000)
		)
		(uuid "05b8f2c8-130d-49d6-bd36-81f48285dce0")
		(property "Sheetname" "Radio interface section"
			(at 200.66 55.1684 0)
			(effects
				(font
					(size 1.27 1.27)
				)
				(justify left bottom)
			)
		)
		(property "Sheetfile" "Radio_interface.kicad_sch"
			(at 200.66 79.3246 0)
			(effects
				(font
					(size 1.27 1.27)
				)
				(justify left top)
			)
		)
		(instances
			(project "OpenTNC-Pico"
				(path "/2fae58be-b645-45b3-b2b5-5e98e31fb51e"
					(page "2")
				)
			)
		)
	)
	(sheet
		(at 200.66 106.68)
		(size 25.4 21.59)
		(fields_autoplaced yes)
		(stroke
			(width 0.1524)
			(type solid)
		)
		(fill
			(color 0 0 0 0.0000)
		)
		(uuid "935f4a94-7632-4892-a855-e7d5c43e74c7")
		(property "Sheetname" "Display section"
			(at 200.66 105.9684 0)
			(effects
				(font
					(size 1.27 1.27)
				)
				(justify left bottom)
			)
		)
		(property "Sheetfile" "Display.kicad_sch"
			(at 200.66 128.8546 0)
			(effects
				(font
					(size 1.27 1.27)
				)
				(justify left top)
			)
		)
		(instances
			(project "OpenTNC-Pico"
				(path "/2fae58be-b645-45b3-b2b5-5e98e31fb51e"
					(page "3")
				)
			)
		)
	)
	(sheet
		(at 201.295 139.7)
		(size 24.765 19.685)
		(fields_autoplaced yes)
		(stroke
			(width 0.1524)
			(type solid)
		)
		(fill
			(color 0 0 0 0.0000)
		)
		(uuid "e81038ac-a0f3-4508-9219-7533794100e1")
		(property "Sheetname" "Debug LEDs"
			(at 201.295 138.9884 0)
			(effects
				(font
					(size 1.27 1.27)
				)
				(justify left bottom)
			)
		)
		(property "Sheetfile" "Debug_LEDs.kicad_sch"
			(at 201.295 159.9696 0)
			(effects
				(font
					(size 1.27 1.27)
				)
				(justify left top)
			)
		)
		(instances
			(project "OpenTNC-Pico"
				(path "/2fae58be-b645-45b3-b2b5-5e98e31fb51e"
					(page "4")
				)
			)
		)
	)
	(sheet_instances
		(path "/"
			(page "1")
		)
	)
)
